{"cities": [ [461727, "Olenevka"], [505257, "Urzuf"], [613273, "Lebedyn"], [616196, "Staryy Dobrotvor"], [616743, "Druzhkovka"], [618835, "Zhidachov"], [686729, "Vasylivka"], [686762, "Ivano-Frankove"], [686803, "Zvenyhorodka"], [686812, "Zuya"], [686818, "Zuhres"], [686850, "Zorkine"], [686863, "Zolotyy Potik"], [686875, "Zolotonosha"], [686895, "Zolochiv"], [686896, "Zolochiv"], [686898, "Zol’noye"], [686919, "Znomenka"], [686928, "Zmiyev"], [686932, "Zlynka"], [686943, "Zlatopol’"], [686949, "Zin’kovtsy"], [686966, "Zhytomyrs’ka Oblast’"], [686967, "Zhytomyr"], [686970, "Zhvanets"], [687009, "Zhuravka"], [687021, "Zhulyany"], [687032, "Zhukivka"], [687060, "Zhovtnevoye"], [687065, "Zhovtneve"], [687093, "Zhovkva"], [687116, "Zhmerynka"], [687150, "Zhigulina Roshcha"], [687191, "Zhelyabovka"], [687196, "Zhovti Vody"], [687245, "Zhashkiv"], [687277, "Zhurivka"], [687292, "Zinkiv"], [687301, "Zemlyanychne"], [687345, "Zeleny Hay"], [687363, "Zelenyy"], [687388, "Arpat"], [687432, "Zdolbuniv"], [687433, "Zdolbitsa"], [687449, "Zboriv"], [687455, "Zbarazh"], [687501, "Zavods’ke"], [687526, "Zavallya"], [687556, "Karolino-Buhaz"], [687557, "Zatoka"], [687562, "Zatyshshya"], [687578, "Zastavna"], [687602, "Zarya"], [687640, "Zarech’ye"], [687645, "Zarichchya"], [687652, "Zarichne"], [687656, "Zarichne"], [687669, "Zaprudnoye"], [687670, "Zaprudnoye"], [687676, "Zaporozh’ye Levoye"], [687699, "Zaporiz’ka Oblast’"], [687700, "Zaporizhzhya"], [687726, "Zaozerne"], [687746, "Zamost’ye"], [687787, "Zaliztsi"], [687790, "Zheleznyj port"], [687796, "Zaliznychne"], [687797, "Zaliznychne"], [687824, "Zalesnoye"], [687825, "Zalisne"], [687826, "Zalishchyky"], [687835, "Zakutnevka"], [687841, "Zakupne"], [687869, "Zakarpats’ka Oblast’"], [687872, "Zahvizdya"], [687901, "Zagnitkiv"], [687933, "Zachepylivka"], [687965, "Zabolotiv"], [687995, "Yuzhne"], [687997, "Yuzhne"], [688022, "Yur”yivka"], [688041, "Yurov"], [688052, "Yurkivka"], [688074, "Yunga"], [688105, "Yevpatoriya"], [688122, "Yermakove"], [688127, "Yerky"], [688146, "Yenikale"], [688148, "Yenakiyeve"], [688157, "Yemel’yanov"], [688170, "Yelizavetovka"], [688191, "Yelyzavethradka"], [688221, "Yelanets’"], [688279, "Yavoruv"], [688288, "Yavoriv"], [688357, "Yasna Polyana"], [688365, "Yasinya"], [688373, "Yasinovataya"], [688440, "Yarmolyntsi"], [688451, "Yarizovka"], [688455, "Yaremche"], [688501, "Yampil"], [688512, "Yamnytsya"], [688532, "Yalta"], [688533, "Yalta"], [688587, "Yahotyn"], [688602, "Yahilnytsya"], [688625, "Yabluniv"], [688628, "Yablon’ki"], [688637, "Yablunytsya"], [688663, "Vyshchetarasivka"], [688675, "Vysokoye"], [688681, "Vysoke"], [688689, "Vysokopillya"], [688696, "Vysokyy"], [688717, "Vyshkovo"], [688723, "Vyshhorod"], [688726, "Vyshegrad"], [688746, "Vynohradiv"], [688749, "Vylok"], [688750, "Vylkove"], [688805, "Vvedenka"], [688817, "Vulkanivka"], [688826, "Vulino"], [688827, "Vugrinivka"], [688828, "Vuglyar"], [688846, "Vradiyivka"], [688860, "Voznesensk"], [688865, "Voznesenka"], [688904, "Voykove"], [688951, "Voskhod"], [688952, "Voskhod"], [688956, "Vorzel"], [688961, "Vorozhba"], [688986, "Chernihivka"], [689003, "Voronovytsya"], [689025, "Voronezh"], [689037, "Vorokhta"], [689064, "Volyns’ka Oblast’"], [689106, "Volovets"], [689144, "Voloka"], [689151, "Volodarskoye"], [689157, "Volodarka"], [689159, "Volochys’k"], [689190, "Volnoye"], [689198, "Volnovakha"], [689200, "Vil’nohirs’k"], [689304, "Vovchansk"], [689307, "Voyinka"], [689321, "Vodyane"], [689374, "Vladyslavivka"], [689378, "Volodymyr-Volynskyy"], [689416, "Volodymyrivka"], [689428, "Volodymyrets"], [689434, "Vyzhnytsya"], [689482, "Vishnevyy"], [709250, "Fasovaya"], [709267, "Eski Yurt"], [709270, "Eskhar"], [709273, "Eriklik"], [709276, "Energodar"], [709295, "Dzvinogrud"], [709296, "Dz’vinogrud"], [709325, "Dzhefar-Berdy"], [709334, "Dzhankoy"], [709344, "Dzhaga-Mamysh"], [709354, "Dzerzhynsk"], [709367, "Dymovka"], [709373, "Dymer"], [709399, "Dvorichna"], [709429, "Dunaivtsi"], [709450, "Duliby"], [709465, "Dudchany"], [709493, "Dubrovytsya"], [709516, "Dubove"], [709540, "Dubno"], [709546, "Dublyany"], [709547, "Dublyany"], [709584, "Druzhba"], [709587, "Druzhba"], [709602, "Drovyanka"], [709611, "Drogobych"], [709624, "Dravtse"], [709630, "Drahovo"], [709643, "Drabiv"], [709665, "Dovbysh"], [709681, "Doroshivka"], [709716, "Donets’ka Oblast’"], [709717, "Donetsk"], [709740, "Domanivka"], [709755, "Dolyna"], [709761, "Dolossy"],
  [689487, "Vyshneve"], [689488, "Vyshneve"], [689531, "Vynohradove"], [689543, "Vynohradivka"], [689552, "Vinogradnoye"], [689558, "Vinnytsya"], [689559, "Vinnyts’ka Oblast’"], [689584, "Vil’nyans’k"], [689595, "Viline"], [689717, "Veselynove"], [689736, "Vesele"], [689738, "Vesele"], [689772, "Veseloye"], [689817, "Verkhovyna"], [689830, "Verkhnyaya Syrovatka"], [689834, "Verkhnya Rozhanka"], [689845, "Verkhnya Krynytsya"], [689857, "Verkhnyachka"], [689860, "Verkhniy Yasenov"], [689868, "Verkhniy Rohachyk"], [689892, "Verkhneye Sinevidnoye"], [689905, "Verkhn’osadove"], [689916, "Verkhn’odniprovs’k"], [689945, "Verenchanka"], [689974, "Verbovka"], [689985, "Verbovatovka"], [689997, "Verbki"], [690009, "Verbivka"], [690017, "Verbany"], [690029, "Rozivka"], [690032, "Vendychany"], [690035, "Velykoploske"], [690038, "Velyka Mykhaylivka"], [690043, "Vel’ky Sevl’yush"], [690132, "Velykyy Klyuchiv"], [690147, "Velikiye Sorochintsy"], [690165, "Velyki Kopany"], [690184, "Velikiye Borki"], [690193, "Velikiy Burluk"], [690197, "Velikiy Bereznyy"], [690230, "Velyka Pysarivka"], [690247, "Velyka Lepetykha"], [690281, "Velyka Bilozerka"], [690285, "Velyka Bahachka"], [690288, "Velyka Oleksandrivka"], [690312, "Vatutine"], [690335, "Vasyshcheve"], [690367, "Vasil’yevka"], [690380, "Vasil’yevka"], [690393, "Vasil’yevka"], [690398, "Vasil’yevka"], [690412, "Vasylkiv"], [690428, "Vashkivtsi"], [690434, "Vary"], [690454, "Varvarovka"], [690466, "Varvarivka"], [690469, "Varva"], [690471, "Varshitsa"], [690485, "Vapnyarka"], [690509, "Valky"], [690545, "Uzyn"], [690548, "Uzhhorod"], [690553, "Uzenbash"], [690556, "Uyutne"], [690557, "Uyutnaya"], [690571, "Utkivka"], [690600, "Ustynivka"], [690629, "Uspenka"], [690647, "Ushchel’noye"], [690648, "Usatove"], [690652, "Urus-Khodzha"], [690673, "Uralo-Kavkaz"], [690679, "Nyzhni Petrivtsi"], [690688, "Uman"], [690713, "Ul’yanovka"], [690745, "Ulichnoye"], [690756, "Ulanov"], [690773, "Ukrainka"], [690777, "Ukrainka"], [690788, "Ukrayinka"], [690791, "Ukraine"], [690804, "Uhryniv"], [690814, "Ugnev"], [690820, "Uhlove"], [690822, "Uglegorsk"], [690823, "Ugledar"], [690847, "Uchkuyeva"], [690856, "Tyuzler"], [690873, "Tysmenytsya"], [690875, "Tysmenychany"], [690890, "Tynnoye"], [690906, "Tyachiv"], [690960, "Turka"], [690963, "Turiysk"], [690973, "Turhenyevka"], [690985, "Turbiv"], [691016, "Tulchyn"], [691019, "Tukhlya"], [691037, "Tsyurupynsk"], [691051, "Tsybulevka"], [691052, "Tsybli"], [691064, "Tsvitkove"], [691097, "Tsibulev"], [691155, "Tsarychanka"], [691160, "Pushkine"], [691179, "Truskavets"], [691184, "Trukhanov Ostrov"], [691255, "Trostyanets"], [691293, "Troyits’ko-Khartsyz’k"], [691305, "Tripolye"], [691336, "Trebukhiv"], [691355, "Toshkovka"], [691374, "Torez"], [691435, "Tomakivka"], [691444, "Tovste"], [691462, "Tole"], [691469, "Tokmak"], [691497, "Tlumach"], [691510, "Tyshkivka"], [691526, "Tymoshivka"], [691578, "Tetiyiv"], [691603, "Terpinnya"], [691606, "Terny"], [691628, "Ternovka"], [691630, "Ternovka"], [691634, "Ternivka"], [691639, "Ternuvate"], [691649, "Ternopil’s’ka Oblast’"], [691650, "Ternopil"], [691679, "Terenair"], [691693, "Terebovlya"], [691705, "Teplogorsk"], [691708, "Teplyk"], [691715, "Teofipol’"], [691741, "Tel’manove"], [691743, "Telichka"], [691803, "Tatarbunary"], [691820, "Tarutyne"], [691842, "Ostrovs’ke"], [691904, "Tarashcha"], [691919, "Tankove"], [691942, "Talalayivka"], [691959, "Taburishche"], [691991, "Syrai"], [691999, "Syeverodonetsk"], [692014, "Svyatoshino"], [712987, "Baglikovo"], [712992, "Baherove"], [713017, "Babintsy"], [713019, "Babintsy"], [713055, "Babanka"], [713076, "Ayvazovskaya"], [713099, "Ayans’ke Dzherelo"], [713101, "Avtozavodskiy Rayon"],[694752, "Savyntsi"], [694792, "Sarny"], [694812, "Sarata"], [694817, "Sarabuz Russkiy"], [694864, "Sambir"], [694910, "Saky"], [694919, "Sakhnovshchyna"], [694934, "Sadzhavka"], [694992, "Rzhyshchiv"], [695026, "Rykhtichi"], [695052, "Rybakivka"], [695053, "Rybache"], [695082, "Ruzhyn"], [695104, "Russkaya Polyana"], [695205, "Rudne"], [695209, "Rudniki"], [695221, "Rudki"], [695274, "Rubizhne"], [695298, "Rozvadov"], [695305, "Rozovka"], [695307, "Rozivka"], [695315, "Rozhnyativ"], [695320, "Rozhniv"], [695322, "Urochyshche Rozhkova"], [695326, "Rozhyshche"], [695342, "Rozdo"], [695344, "Rozdilna"], [695347, "Rozy Lyuksemburh"], [695365, "Rivne"], [695379, "Rovenki"], [695394, "Rosvigovo"], [695439, "Roskoshnyy"],
  [692016, "Svyatogorsk"], [692035, "Svobodnaya Zhizn’"], [692039, "Svityaz"], [692087, "Svitlovodsk"], [692105, "Sverdlovsk"], [692118, "Svatove"], [692122, "Svarychiv"], [692129, "Svalyava"], [692146, "Sutysky"], [692175, "Sursko-Mikhaylovka"], [692176, "Sursko-Litovskoye"], [692194, "Sumy"], [692196, "Sums’ka Oblast’"], [692210, "Sukhyy Lyman"], [692233, "Sukhovolya"], [692248, "Sukhoivanovskoye"], [692254, "Sukhodol’sk"], [692287, "Sukharka"], [692301, "Sudovaya Vishnya"], [692315, "Sudak"], [692317, "Subottsi"], [692352, "Studenok"], [692372, "Stryi"], [692410, "Strohonivka"], [692465, "Strabychovo"], [692468, "Stozhkovskoye"], [692487, "Storozhynets’"], [692505, "Stovpove"], [692531, "Stetseva"], [692604, "Stepanivka"], [692632, "Stebnik"], [692638, "Steblev"], [692672, "Stavyshche"], [692702, "Staryy Sambor"], [692703, "Staryy Saltov"], [692709, "Staryy Merchyk"], [692713, "Staryy Krym"], [692714, "Staryy Krym"], [692742, "Stari Kuty"], [692749, "Stari Bohorodchany"], [692786, "Staroverovka"], [692800, "Starosel’ye"], [692818, "Starokostyantyniv"], [692819, "Starokozache"], [692829, "Starobesheve"], [692832, "Starobilsk"], [692844, "Starychi"], [692856, "Stara Vyzhivka"], [692866, "Stara Synyava"], [692909, "Staraya Darnitsa"], [692944, "Stanislav"], [692975, "Stakhanov"], [692995, "Sredniy Fontan"], [693001, "Serednye Vodyane"], [693002, "Serednye"], [693010, "Sribne"], [693028, "Spasskoye"], [693044, "Spas"], [693056, "Sovetskoye"], [693070, "Sotera"], [693080, "Sosnovka"], [693100, "Sosnytsya"], [693176, "Solotvyno"], [693178, "Solotvyn"], [693193, "Solonka"], [693194, "Solonytsivka"], [693219, "Sonyachna Dolyna"], [693226, "Solone Ozero"], [693231, "Solone"], [693250, "Sokolovo"], [693269, "Sokolohirne"], [693272, "Sokolyne"], [693284, "Sokyryany"], [693301, "Sokal"], [693325, "Sofiyivka"], [693342, "Sofiyivka"], [693348, "Sobolivka"], [693360, "Sobatin"], [693365, "Snyatyn"], [693372, "Snitovskoye"], [693379, "Snihurivka"], [693381, "Snizhne"], [693457, "Smila"], [693468, "Sloviansk"], [693510, "Slobidka"], [693514, "Sloboda Zasluch’"], [693546, "Sloboda"], [693577, "Svyatohirs’k"], [693581, "Slavuta"], [693582, "Slavske"], [693585, "Slavov"], [693598, "Slatino"], [693615, "Skvyra"], [693658, "Skole"], [693665, "Sknyliv"], [693679, "Skhodnitsa"], [693698, "Skalyste"], [693700, "Skalat"], [693705, "Skakunka"], [693709, "Skadovsk"], [693738, "Sitnyaki"], [693789, "Synevyrska Polyana"], [693791, "Synevyr"], [693796, "Synelnykove"], [693805, "Simferopol"], [693809, "Simeiz"], [693920, "Shpola"], [693942, "Shostka"], [693953, "Sholokhove"], [693960, "Shmidta"], [693995, "Shklo"], [694013, "Shyshaky"], [694016, "Shyryayeve"], [694023, "Shyroke"], [694025, "Shyroke"], [694073, "Shypyntsi"], [694115, "Shevekova"], [694117, "Shevchenko Vtoroy"], [694137, "Shevchenkove"], [694148, "Shevchenkove"], [694152, "Shevchenkove"], [694165, "Shevchenko"], [694197, "Shestakovka"], [694198, "Sheshory"], [694216, "Shepetivka"], [694240, "Shelokovyy"], [694246, "Shelkovichnoye"], [694273, "Shchors"], [694290, "Shcherbinovka"], [694308, "Shchemilovka"], [694320, "Shchebetovka"], [694333, "Shatsk"], [694342, "Sharovechka"], [694350, "Sharhorod"], [694369, "Shalyhyne"], [694382, "Shakhtersk"], [694385, "Shakh-Murza Staraya"], [694392, "Shabo"], [694393, "Shablykina"], [694403, "Seversk"], [694422, "Misto Sevastopol’"], [694423, "Sevastopol"], [694427, "Serpneve"], [694467, "Sergeyevka"], [694491, "Seredyna-Buda"], [694498, "Serebriya"], [694548, "Sencha"], [694554, "Semysotka"], [694558, "Semypolky"], [694568, "Semikhatka"], [694574, "Semydvir”ya"], [694579, "Semeykino"], [694590, "Semenivka"], [694603, "Semenivka"], [694623, "Semenivka"], [694627, "Semenivka"], [694656, "Sel’tse"], [694677, "Selidovo"], [694691, "Selets"], [694712, "Syedove"], [694715, "Sedniv"], [694725, "Schastye"], [694728, "Schastlivoye"], [694745, "Savran"],  [712926, "Balakliya"], [712930, "Balaklava"], [712934, "Balabine"], [712967, "Bakhmach"], [709932, "Dniprodzerzhynsk"], [709940, "Dnipryany"], [709954, "Dniprovka"], [709960, "Dniprorudne"], [702147, "Mala Vyska"], [702153, "Mala Tokmachka"], [702231, "Mala Danylivka"],[712861, "Bar"], [712871, "Banyliv"], [712886, "Balta"], [712887, "Balovnoye"], [712895, "Balky"],[695559, "Rogatin"], [695570, "Rodomyslovka"], [695572, "Rodnykivs’ke"], [695574, "Rodnykove"], [695579, "Rodionovka"], [709865, "Dobroye Utro"], [709869, "Dobre"],
  [695581, "Rodinskoye"], [695592, "Rivnens’ka Oblast’"], [695594, "Rivne"], [695641, "Reshetilovskiy Kut"], [695643, "Reshetylivka"], [695646, "Rezervne"], [695653, "Ripky"], [695670, "Reni"], [695699, "Rechka"], [695740, "Rozdolne"], [695789, "Ratne"], [695798, "Rassypnoye"], [695821, "Ralevka"], [695826, "Rakiv Lis"], [695844, "Rakoshyno"], [695859, "Rakhiv"], [695912, "Radomyshl"], [695937, "Radcha"], [695947, "Rabochiy Ugolok"], [695965, "Piatykhatky"], [696008, "Putyvl"], [696010, "Putilovka"], [696032, "Pustomyty"], [696050, "Pushcha-Voditsa"], [696071, "Pudlovtsy"], [696108, "Pryluky"], [696127, "Prudyanka"], [696136, "Protsevka"], [696204, "Pryyutivka"], [696218, "Pryvillya"], [696234, "Privol’noye"], [696240, "Pryvitne"], [696262, "Pryshyb"], [696275, "Pryozerne"], [696278, "Prymors’ke"], [696280, "Primorskoye"], [696292, "Prymorsk"], [696302, "Prikolotnoye"], [696309, "Prigorodnoye"], [696310, "Prigorodnoye"], [696313, "Prydorozhnye"], [696317, "Pridneprovsk"], [696332, "Pryazovs’ke"], [696348, "Preobrazhenka"], [696359, "Predmostnaya"], [696377, "Poznyaki"], [696416, "Potok"], [696471, "Portove"], [696478, "Poroshkovo"], [696483, "Porohy"], [696542, "Popova"], [696557, "Popilnya"], [696566, "Popasnaya"], [696576, "Poninka"], [696581, "Pomichna"], [696582, "Pomoryany"], [696602, "Polyanka"], [696628, "Poltavskoye"], [696634, "Poltavs’ka Oblast’"], [696643, "Poltava"], [696660, "Polonne"], [696677, "Polohy"], [696722, "Pokrovs’ke"], [696740, "Pokrovka"], [696743, "Pokotylivka"], [696771, "Pohrebyshche"], [696823, "Pidvolochys’k"], [696824, "Pidvynohradiv"], [696877, "Podol"], [696938, "Podgortsy"], [696943, "Pidhorodne"], [696945, "Pidhorodne"], [696948, "Pidhorodna"], [696961, "Pidhirne"], [696966, "Pidhaytsi"], [696989, "Podbuzh"], [696999, "Poshtove"], [697006, "Pochayiv"], [697018, "Pobugskoye"], [697038, "Pniv"], [697107, "Plenenfel’d"], [697114, "Plavni"], [697124, "Koktebel"], [697126, "Plakhtiyivka"], [697135, "Pivdenne"], [697183, "Pyryatyn"], [697196, "Pirogovichi"], [697230, "Pylypets"], [697244, "Pikalovka"], [697276, "Petrovskoye"], [697325, "Petrove"], [697418, "Petropavlovskaya Borshchagovka"], [697423, "Petropavlivka"], [697450, "Petrivka"], [697455, "Petrykivka"], [697457, "Petrikov"], [697473, "Petranka"], [697488, "Pesochin"], [697489, "Piskivka"], [697530, "Pishchane"], [697536, "Peschanka"], [697543, "Peschana"], [697568, "Pervomayske"], [697576, "Pervomays’kyy"], [697592, "Pervomaysk"], [697593, "Pervomaysk"], [697608, "Pershotravneve"], [697613, "Manhush"], [697624, "Perove"], [697628, "Perkovtsy"], [697637, "Pereyaslav-Khmelnytskyy"], [697650, "Perevalsk"], [697652, "Perevalivka"], [697653, "Perevalnoe"], [697676, "Peresichna"], [697692, "Peremyshlyany"], [697739, "Perehonivka"], [697750, "Perechyn"], [697802, "Pechenizhyn"], [697811, "Pcholyne"], [697817, "Pavlysh"], [697839, "Pavlivka"], [697841, "Pavlovka"], [697859, "Pavlovka"], [697889, "Pavlohrad"], [697945, "Pasichna"], [697953, "Parutyne"], [697957, "Partyzany"], [697958, "Adzhymushkay"], [697959, "Partyzans’ke"], [697960, "Partizanskoye"], [697979, "Parizhskaya Kommuna"], [697994, "Paraskoveyevka"], [698003, "Panyutyne"], [698006, "Panteleymonovka"], [698008, "Pantayivka"], [698102, "Ozerne"], [698107, "Ozerne"], [698110, "Ozerna"], [698131, "Ovruch"], [698138, "Ovidiopol"], [698142, "Otyniya"], [698157, "Vidradne"], [698159, "Otradnoye"], [698166, "Otesh-Eli"], [698232, "Ostroh"], [698247, "Oster"], [698283, "Osokorki"], [698316, "Osypenko"], [698346, "Orzhytsya"], [698351, "Ortay"], [698362, "Orlovshchina"], [698391, "Orlyne"], [698410, "Orekhovskiy"], [698428, "Orikhiv"], [698436, "Ordzhonikidze"], [698438, "Ordzhonikidze"], [698450, "Orativ"], [698459, "Opryshovtse"], [698462, "Oposhnya"], [698466, "Opolzneve"], [698479, "Onufriyivka"], [698502, "Olyka"], [698510, "Olshanskoye"], [698542, "Ol’khovtsy"], [698570, "Olishevka"], [698597, "Olevsk"], [698598, "Olesko"], [698625, "Oleksandriya"], [698627, "Oleksandrivka"], [698652, "Oktyabrs’ke"], [698738, "Odes’ka Oblast’"], [709114, "Fontanka"], [709151, "Fersmanove"], [709161, "Feodosiya"], [709248, "Fastiv"],[702073, "Malokakhovka"], [702116, "Malyn"], [702147, "Mala Vyska"], [702153, "Mala Tokmachka"], [702231, "Mala Danylivka"], [709075, "Partenit"], [709077, "Frunzenskiy"], [709078, "Frunze"], [709082, "Frunze"], [709083, "Fruktove"], [709112, "Foros"], [709077, "Frunzenskiy"], [709078, "Frunze"],
  [698740, "Odessa"], [698770, "Ochakiv"], [698782, "Obukhiv"], [698790, "Obroshyne"], [698807, "Obodivka"], [698825, "Obertyn"], [698840, "Nuyno"], [698852, "Novyy Yarychiv"], [698861, "Novyy Svit"], [698865, "Novyy Svit"], [698866, "Novyi Svit"], [698869, "Novyy Starodub"], [698873, "Novyy Sarabuz"], [698921, "Novi Troyany"], [698927, "Novi Sanzhary"], [698943, "Novi Bilokorovychi"], [698949, "Novyy Chudnov"], [698953, "Novyy Buh"], [699015, "Nove Davydkovo"], [699034, "Novovorontsovka"], [699035, "Novovolynsk"], [699061, "Novovasylivka"], [699066, "Novo-Uspenka"], [699072, "Novoul’yanovka"], [699078, "Novoukrayinka"], [699100, "Novotroyitske"], [699272, "Novoselitsa"], [699285, "Novoselytsya"], [699311, "Novopskov"], [699317, "Novo-Poznyaki"], [699318, "Novopillya"], [699328, "Novopokrovka"], [699329, "Novopokrovka"], [699403, "Novo-Nikolayevskiy"], [699406, "Novo-Nikolayevka"], [699410, "Novonikolayevka"], [699413, "Novomykolayivka"], [699445, "Novomoskovsk"], [699453, "Novomyrhorod"], [699550, "Novoivanivka"], [699553, "Novohrad-Volynskyy"], [699557, "Novogrodovka"], [699562, "Novo-Grigor’yevka"], [699573, "Novo-Grigor’yevka"], [699606, "Novofedorovka"], [699607, "Novofedorovka"], [699657, "Novobohdanivka"], [699675, "Novoazovsk"], [699677, "Novoaydar"], [699680, "Novoarkhanhelsk"], [699706, "Novooleksiyivka"], [699718, "Novo-Aleksandrovka"], [699746, "Novytsya"], [699753, "Novhorod-Siverskyy"], [699756, "Novhorodka"], [699761, "Nove-Misto"], [699777, "Nova Vodolaha"], [699802, "Nova Praha"], [699811, "Nova Odesa"], [699823, "Nova Mayachka"], [699839, "Nova Kakhovka"], [699844, "Ivanivka"], [699871, "Novaya Darnitsa"], [699882, "Nova Borova"], [699899, "Nova Ushytsya"], [699917, "Nosivka"], [699933, "Nyzy"], [699942, "Nizhyn"], [699956, "Nizhnyaya Krynka"], [699963, "Nyzhnya Duvanka"], [699967, "Nizhnyanka"], [699986, "Nyzhni Sirohozy"], [699989, "Nizhniye Partizany"], [699992, "Nizhniy Chorgun’"], [699996, "Nizhniy Airgul’"], [700019, "Nyzhnohirskyy"], [700022, "Nizhnedneprovsk"], [700051, "Nikopol"], [700072, "Nikol’skaya"], [700079, "Nikolaypol’ye"], [700151, "Nikolayevka"], [700159, "Mykolayivka"], [700177, "Mykolayivka"], [700180, "Mykolayivka"], [700181, "Mykolayivka"], [700182, "Mykolayivka"], [700201, "Nikiforovskiy"], [700261, "Netishyn"], [700272, "Nestileyevka"], [700273, "Nestervarka"], [700295, "Neresnytsya"], [700322, "Nemyriv"], [700341, "Nelipyno"], [700371, "Nedryhayliv"], [700391, "Nebyliv"], [700396, "Nebilitsa"], [700410, "Navariya"], [700416, "Nauchnyy"], [700432, "Nasypne"], [700446, "Narodychi"], [700490, "Nagornoye"], [700500, "Nadychi"], [700507, "Nadvirna"], [700544, "Mytnitsa"], [700550, "Mysove"], [700567, "Mykolayivs’ka Oblast’"], [700568, "Mykolayiv"], [700569, "Mykolayiv"], [700606, "Murovani Kurylivtsi"], [700607, "Murovanoye"], [700646, "Mukacheve"], [700661, "Mramorne"], [700700, "Mospyne"], [700730, "Moshny"], [700750, "Morskoye"], [700753, "Morshin"], [700754, "Morozovskiy"], [700755, "Morozovskiy"], [700796, "Monastyryshche"], [700829, "Molodogvardeysk"], [700831, "Molodiya"], [700834, "Molodizhne"], [700835, "Molodizhne"], [700871, "Mokroye"], [700918, "Mohyliv-Podilskyy"], [700924, "Mogilev"], [700964, "Mlyniv"], [700967, "Mleyev"], [700974, "Mizoch"], [700977, "Miusinsk"], [700997, "Miskhor"], [701031, "Myronivka"], [701032, "Mironovka"], [701057, "Myrnyy"], [701075, "Myrhorod"], [701091, "Mynay"], [701104, "Milove"], [701119, "Mikulintsy"], [701196, "Mikhaylovka"], [701216, "Mikhaylovka"], [701233, "Mykhaylivka"], [701274, "Myhove"], [701276, "Myhiya"], [701286, "Mizhvodne"], [701294, "Chudey"], [701299, "Volovo"], [701300, "Baksan"], [701305, "Mezhova"], [701347, "Merefa"], [701372, "Mena"], [701404, "Melitopol"], [701405, "Meliorativnoye"], [701413, "Melekyne"], [701419, "Mekenziyevy Gory"], [701425, "Medzhibozh"], [701453, "Medvedivka"], [701466, "Medenychi"], [701491, "Mays’ke"], [701500, "Mayorovka"], [701560, "Mayaky"], [701579, "Matrosskaya Sloboda"], [701587, "Matveyevka"], [701588, "Matviyivka"], [701611, "Matiasa"], [701619, "Massandra"], [701637, "Mashivka"], [701650, "Mar’yevka"], [701759, "Martusovka"], [701768, "Marshintsy"], [701779, "Markovtsy"], [701792, "Markivka"], [701802, "Markova"], [701822, "Mariupol"], [701824, "Mariupol"], [701845, "Mar’inka"], [701855, "Marhanets"], [701862, "Mare"], [701877, "Manyava"], [701906, "Manevichi"], [701911, "Manchzhuriya"], [701912, "Manchenky"],
  [702246, "Mala Bilozerka"], [702320, "Makiyivka"], [702337, "Makariv"], [702356, "Mahdalynivka"], [702417, "Lyubotyn"], [702421, "Lyuboml"], [702459, "Lyubymivka"], [702463, "Lyubymivka"], [702477, "Lyubech"], [702486, "Lyubar"], [702491, "Lysyanka"], [702507, "Lysa Hora"], [702549, "L’vivs’ka Oblast’"], [702550, "Lviv"], [702557, "Luzhany"], [702563, "Lutugino"], [702569, "Lutsk"], [702612, "Lukiv"], [702657, "Luhans’ka Oblast’"], [702658, "Luhansk"], [702662, "Luhove"], [702679, "Luhyny"], [702694, "Lug"], [702705, "Luchyste"], [702723, "Lubny"], [702741, "Lozove"], [702760, "Lozova"], [702765, "Lozovatka Vtoraya"], [702774, "Lozuvatka"], [702782, "Lozno-Oleksandrivka"], [702834, "Lopukhiv"], [702844, "Lopatin"], [702874, "Lokhvytsya"], [702878, "Lokachi"], [702898, "Lyubashivka"], [702907, "Livadiya"], [702931, "Lityn"], [702962, "Liski"], [702971, "Lysychovo"], [702972, "Lisichansk"], [703014, "Lipovaya Rosheha"], [703015, "Lypova Dolyna"], [703017, "Lypnyazhka"], [703042, "Lypcha"], [703061, "Lymanske"], [703071, "Lyman"], [703079, "Lykhivka"], [703142, "Letychiv"], [703144, "Lesovy"], [703168, "Lesnaya"], [703169, "Lisne"], [703261, "Lenine"], [703270, "Lenina"], [703311, "Lebedyn"], [703317, "Lazurne"], [703325, "Lazi"], [703328, "Lazeshchyna"], [703363, "Laspi"], [703397, "Lanivtsi"], [703410, "Lanchyn"], [703423, "Lagernoye"], [703428, "Ladyzhyn"], [703438, "Ladan"], [703446, "Kyyivs’ka Oblast’"], [703447, "Misto Kyyiv"], [703448, "Kiev"], [703455, "Kvasy"], [703464, "Kuznetsovsk"], [703494, "Kuybysheve"], [703498, "Kuybysheve"], [703514, "Kuty"], [703518, "Verkhnya Kutuzovka"], [703537, "Kuteynykove"], [703555, "Kushuhum"], [703559, "Kushnytsya"], [703586, "Kurpaty"], [703596, "Kurortne"], [703625, "Kurenevka"], [703646, "Kurakhovo"], [703656, "Kupjansk"], [703706, "Kulynychi"], [703713, "Kulykivka"], [703716, "Kulikov"], [703728, "Kulebovka"], [703757, "Kukhmisterskaya Sloboda"], [703776, "Kudryne"], [703844, "Kryzhanivka"], [703845, "Kryvyy Rih"], [703863, "Sanatoriy Kryms’ke Prymor”ya"], [703883, "Avtonomna Respublika Krym"], [703903, "Kruty"], [703972, "Krucha"], [703973, "Krucha"], [704000, "Krolevets"], [704010, "Kryve Ozero"], [704048, "Kryva Hora"], [704051, "Krivaya Balka"], [704055, "Kryva"], [704067, "Krinichnyy"], [704074, "Krinichnaya"], [704079, "Krynychky"], [704116, "Urochyshche Kripke"], [704118, "Krepenskiy"], [704121, "Krenichi"], [704130, "Tatariv"], [704138, "Kreminna"], [704143, "Kremenets"], [704147, "Kremenchuk"], [704183, "Krasnyy Shlyakh"], [704201, "Krasnyy Mak"], [704202, "Krasnyy Luch"], [704204, "Krasnyy Liman"], [704207, "Krasnyy Kut"], [704218, "Krasnyye Partizany"], [704232, "Krasnyy"], [704253, "Krasnoye Znamya"], [704259, "Krasnoye Selo"], [704277, "Krasnoye"], [704290, "Krasne"], [704303, "Krasnotorka"], [704324, "Krasnoselivka"], [704335, "Krasnosilka"], [704343, "Krasnopillya"], [704360, "Krasnopeshchernaya"], [704362, "Krasnoperekopsk"], [704363, "Krasnopavlivka"], [704376, "Krasnokutsk"], [704377, "Krasnokamenka"], [704381, "Krasnohvardiys’ke"], [704388, "Krasnohrad"], [704393, "Krasnogorovka"], [704402, "Krasnodon"], [704403, "Krasnodon"], [704416, "Krasnoarmeyskoye"], [704422, "Krasnoarmiysk"], [704431, "Krasna Zor’ka"], [704469, "Krasna"], [704492, "Krasyliv"], [704508, "Kramatorsk"], [704525, "Kozova"], [704565, "Kozhanka"], [704573, "Kozelets"], [704608, "Kivsharivka"], [704617, "Kovel"], [704670, "Kotsyubinskoye"], [704679, "Kotovsk"], [704705, "Kotel’va"], [704724, "Kostyantynivka"], [704730, "Kostryzhivka"], [704737, "Kostopil’"], [704764, "Kosiv"], [704772, "Kosmach"], [704773, "Kosmach"], [704839, "Koryukivka"], [704858, "Korsun-Shevchenkivskyy"], [704881, "Korotych"], [704885, "Korostyshiv"], [704901, "Korosten"], [704915, "Korop"], [704920, "Korolevo"], [704949, "Kornyn"], [704968, "Korets"], [704972, "Koreiz"], [705015, "Kopylov"], [705016, "Kopychyntsi"], [705034, "Kopayhorod"], [705053, "Kopani"], [705104, "Kostyantynivka"], [705115, "Kostyantynivka"], [705127, "Konrat"], [705135, "Konotop"], [705183, "Komsomolske"], [705198, "Kompaniyivka"], [705214, "Kommercheskiy"], [705240, "Komarovka"], [705265, "Komarno"], [705282, "Kolubayevtsy"], [705303, "Kolonshchina"], [705307, "Koloniya Zastavye"], [705392, "Kolomyya"], [705403, "Kolomak"], [705431, "Kolodenka"], [705433, "Kolochava"], [705440, "Kolkhozne"], [705442, "Kulevcha"], [705493, "Kodyma"], [705494, "Kodra"], [705512, "Kochetok"],
  [705626, "Klishkivtsi"], [705652, "Klimashevka"], [705660, "Klevan’"], [705673, "Klenovyy"], [705681, "Klembivka"], [705689, "Klavdiyevo-Tarasove"], [705730, "Kivertsy"], [705758, "Kislitskiy"], [705797, "Kirovskoye"], [705798, "Kirovs’ke"], [705799, "Kirovs’ke"], [705809, "Kirovsk"], [705811, "Kirovohrads’ka Oblast’"], [705812, "Kirovohrad"], [705818, "Kirovo"], [705844, "Kirilovka"], [705852, "Kyrylivka"], [705854, "Kirikovka"], [705883, "Kiliya"], [705914, "Khyriv"], [706021, "Khutor Pen’kovatoye"], [706043, "Khutor Naumovskiy"], [706075, "Khmil’"], [706081, "Khutor Kalinovka"], [706082, "Khutor Kalinovka"], [706098, "Khutor Fomina"], [706165, "Khust"], [706200, "Khrystynivka"], [706225, "Khozyain"], [706232, "Khotov"], [706244, "Khotyn"], [706271, "Khorostkiv"], [706281, "Khorosheve"], [706289, "Khorol"], [706333, "Kholodnaya Balka"], [706335, "Kholmy"], [706352, "Khodorov"], [706369, "Khmelnytskyy"], [706370, "Khmel’nyts’ka Oblast’"], [706372, "Khmel’nyts’ke"], [706380, "Khmilnyk"], [706434, "Khymchyn"], [706442, "Khersons’ka Oblast’"], [706448, "Kherson"], [706452, "Tylove"], [706466, "Khartsyzsk"], [706482, "Kharkivs’ka Oblast’"], [706483, "Kharkiv"], [706515, "Kerleut"], [706524, "Kerch"], [706536, "Kel’mentsi"], [706546, "Kehychivka"], [706557, "Kazil’"], [706571, "Kozyatyn"], [706580, "Kazanka"], [706587, "Kozacha Lopan’"], [706596, "Kozachi Laheri"], [706604, "Kaydaki"], [706612, "Katyuzhanka"], [706634, "Katerynopil’"], [706736, "Karnaukhovka"], [706748, "Karlovka"], [706749, "Karlivka"], [706757, "Soledar"], [706803, "Karapyshi"], [706811, "Arbuzivka"], [706883, "Kapitanivka"], [706900, "Kaniv"], [706914, "Kamysh-Zarya"], [706915, "Kamyshnya"], [706921, "Kamyshevka Vtoraya"], [706941, "Komyshuvakha"], [706945, "Komyshany"], [706950, "Kamieniec Podolski"], [706967, "Yanchekrak"], [706987, "Kamennyye Potoki"], [707002, "Kamennoye"], [707025, "Kamin-Kashyrskyy"], [707026, "Kamenka-Na-Dnepre"], [707027, "Kamionka Strumitowa"], [707052, "Kamianka"], [707099, "Kalush"], [707123, "Kalita"], [707127, "Kalyny"], [707133, "Kalinova Popasnaya"], [707155, "Kalynivka"], [707189, "Kalyniv"], [707202, "Bohdanivka"], [707220, "Kalchevaya"], [707232, "Kalanchak"], [707240, "Kakhovskoye"], [707244, "Kakhovka"], [707245, "Kayiry"], [707251, "Kaharlyk"], [707257, "Kadubivtsi"], [707281, "Kacha"], [707292, "Izyum"], [707296, "Izyaslav"], [707305, "Izobil’ne"], [707308, "Izmayil"], [707313, "Yizhivtsi"], [707317, "Iza"], [707356, "Ivanovskiy"], [707451, "Ivanivka"], [707453, "Ivanivka"], [707470, "Ivano-Frankivs’ka Oblast’"], [707471, "Ivano-Frankivsk"], [707488, "Ivan’kov"], [707489, "Ivankiv"], [707511, "Ivanenki"], [707526, "Istoki"], [707529, "Ispas"], [707552, "Isar"], [707559, "Irshava"], [707565, "Irpin"], [707592, "Dolyns’ke"], [707611, "Imshanaya"], [707647, "Imeni Lenina"], [707663, "Imeni Artema"], [707679, "Ilovaysk"],   [707688, "Illichivsk"], [707689, "Illarionovo"], [707695, "Illintsi"], [707711, "Il’ichevskoye"], [707716, "Il’ichevka"], [707744, "Ichnya"], [707752, "Horodok"], [707753, "Horlivka"], [707757, "Hlyboka"], [707758, "Hlukhiv"], [707770, "Hvizd"], [707777, "Hvardiys’ke"], [707786, "Huty"], [707800, "Gutertal’"], [707840, "Husyatyn"], [707860, "Hurzuf"], [707898, "Hulyaypole"], [707921, "Guchok"], [707928, "Gubinikha"], [708003, "Hrushivka"], [708057, "Hryshkivtsi"], [708082, "Hrymayliv"], [708120, "Hryhorivka"], [708140, "Hresivs’kyy"], [708179, "Grebenki"], [708181, "Hrebinka"], [708210, "Gradizhsk"], [708251, "Hostomel"], [708257, "Hoshcha"], [708266, "Goryanovskoye"], [708273, "Gorskoye"], [708296, "Gorokhov"], [708313, "Horodok"], [708320, "Horodnya"], [708324, "Horodnytsya"], [708330, "Horodne"], [708351, "Horodyshche"], [708366, "Horodyshche"], [708367, "Gorodishche"], [708380, "Horodenka"], [708395, "Gornyak"], [708403, "Hornostayivka"], [708408, "Gornaya Zdravnitsa"], [708421, "Gorki"], [708431, "Gorishni Plavni"], [708434, "Horinchovo"], [708506, "Goncharovka"], [708507, "Goncharova"], [708545, "Golubinoye"], [708546, "Holubynka"], [708553, "Golta"], [708569, "Holovyne"], [708613, "Holoby"], [708632, "Hola Prystan"], [708633, "Gogulina"], [708662, "Gnorovskoye"], [708663, "Hnivan’"], [708695, "Gnedin"], [708727, "Hlybokyy Yar"], [708753, "Hlobyne"], [708784, "Glevakha"], [708877, "Heniches’ka Hirka"], [708878, "Henichesk"], [708879, "Heneral’s’ke"], [708898, "Hayvoron"], [708901, "Haysyn"], [708928, "Gavrilovka"],
  [710032, "Dymytrove"], [710033, "Dmytrivka"], [710041, "Dykanka"], [710071, "Desna"], [710098, "Derhachy"], [710129, "Derazhnya"], [710141, "Denysivka"], [710189, "Demidovka"], [710202, "Dilyatyn"], [710214, "Degtyari"], [710229, "Debaltsevo"], [710243, "Davydivka"], [710260, "Dashev"], [710276, "Darnitsa"], [710297, "Danilovka"], [710298, "Danilovka"], [710299, "Danylo-Ivanivka"], [710315, "Dal’niye Kamyshi"], [710320, "Kamyshly"], [710324, "Dalekiy"], [710334, "Dachne"], [710342, "Chutove"], [710368, "Chulakivka"], [710374, "Chuhuyiv"], [710381, "Chudniv"], [710400, "Chortkiv"], [710403, "Chornobyl’"], [710408, "Chopovychi"], [710409, "Chop"], [710413, "Ataman’"], [710425, "Chokolovka"], [710454, "Chysten’ke"], [710463, "Chynadiyovo"], [710473, "Chyhyryn"], [710513, "Chervonyy Pakhar’"], [710531, "Chervonoznamenka"], [710534, "Chervone"], [710538, "Chervone"], [710548, "Chervonopartizansk"], [710552, "Chervonohryhorivka"], [710554, "Chervonograd"], [710565, "Radyvyliv"], [710587, "Chervonaya Sloboda"], [710600, "Chervona-Shakhtarka"], [710615, "Chortomlyk"], [710652, "Chernyatyn"], [710653, "Chornyanka"], [710655, "Chernyakovo"], [710663, "Chernyakhiv"], [710669, "Chornukhy"], [710680, "Chernoslivka"], [710684, "Chornopillya"], [710687, "Chornomorske"], [710698, "Chornoliztsi"], [710715, "Chornobayivka"], [710716, "Chornobay"], [710718, "Cherniyiv"], [710719, "Chernivtsi"], [710720, "Chernivets’ka Oblast’"], [710734, "Chernihivs’ka Oblast’"], [710735, "Chernihiv"], [710741, "Chernivtsi"], [710755, "Chernelytsya"], [710791, "Cherkasy"], [710802, "Cherkas’ka Oblast’"], [710878, "Chekhovo"], [710915, "Chasov Yar"], [710935, "Chaplynka"], [710940, "Chapayeve"], [710947, "Chapayevka"], [710949, "Viytivka"], [710950, "Chapayevka"], [710958, "Chagor"], [710981, "Bytkiv"], [710995, "Bystrytsya"], [711024, "Bykivka"], [711055, "Buzovaya"], [711105, "Bushtyno"], [711116, "Buryn"], [711134, "Burshtyn"], [711165, "Burchak"], [711268, "Budy"], [711348, "Buchach"], [711349, "Bucha"], [711350, "Bucha"], [711359, "Bryukhovychi"], [711369, "Bryanka"], [711382, "Brusyliv"], [711390, "Brovary"], [711398, "Broska"], [711400, "Broshniv-Osada"], [711416, "Brody"], [711435, "Brylivka"], [711459, "Bratslav"], [711487, "Brailiv"], [711515, "Boyarka"], [711518, "Boyany"], [711527, "Nikita"], [711536, "Borzna"], [711562, "Bortnichi"], [711587, "Borshchiv"], [711621, "Borova"], [711623, "Borova"], [711629, "Boromlya"], [711635, "Borodyanka"], [711637, "Borodino"], [711660, "Boryspil"], [711669, "Boryslav"], [711681, "Borangar"], [711743, "Velyke Sadove"], [711752, "Bilshivtsi"], [711756, "Bol’shiye Troyany"], [711820, "Bol’shaya Balka"], [711841, "Bolhrad"], [711850, "Bolekhiv"], [711867, "Bohuslav"], [711887, "Bohorodchany"], [711894, "Bohodukhiv"], [711919, "Bogdanovka"], [711952, "Bohdan"], [711987, "Bobyanskoye"], [711999, "Bobrovytsya"], [712003, "Bobrka"], [712005, "Bobritsa"], [712023, "Bobovo"], [712041, "Blyznyuky"], [712048, "Blizhniye Kamyshi"], [712050, "Blyzhnye"], [712053, "Blyzhn’ohorods’ke"], [712091, "Blahodatne"], [712092, "Blagodatnoye"], [712105, "Biyuk-Nayman"],   [712131, "Biryukove"], [712142, "Birjukowo"], [712160, "Bilhorod-Dnistrovskyy"], [712165, "Bila Tserkva"], [712181, "Bezimenne"], [712200, "Bezlyudivka"], [712223, "Beshuyskiye Kopi"], [712228, "Besh Terek"], [712236, "Besharan’"], [712250, "Bershad’"], [712260, "Beryslav"], [712276, "Berezovo"], [712300, "Berezivka"], [712312, "Berezivka"], [712336, "Bereznyky"], [712339, "Bereznehuvate"], [712343, "Berezna"], [712349, "Berezyne"], [712374, "Berezhani"], [712387, "Berezanka"], [712389, "Berezan’"], [712416, "Berestechko"], [712423, "Berehove"], [712427, "Berehove"], [712430, "Berehomet"], [712441, "Berdychiv"], [712443, "Berdyanskoye"], [712451, "Berdyansk"], [712471, "Belz"], [712477, "Bili Oslavy"], [712488, "Bilyayivka"], [712492, "Belyary"], [712508, "Bilozerka"], [712515, "Beloye"], [712521, "Bilovodsk"], [712548, "Belostadnoye"], [712559, "Bilopillya"], [712569, "Bilokurakyne"], [712575, "Belokamenskoye"], [712576, "Inkerman"], [712587, "Bilohirsk"], [712588, "Belogorovka"], [712590, "Belogorodka"], [712602, "Bilky"], [712613, "Belitskoye"], [712615, "Belitskiy"], [712631, "Belichi"], [712654, "Bila Skelya"], [712656, "Bila Krynytsya"], [712667, "Belaya"], [712682, "Bekhtery"], [712715, "Bazaliya"], [712745, "Baturyn"], [712752, "Sanatoriy Batylyman"], [712755, "Batal’ne"],
  [713122, "Avdeyevka"], [713126, "Auly"], [713135, "Atestovo"], [713142, "Ataki"], [713150, "Asport"], [713154, "Askaniya Nova"], [713155, "-"], [713163, "Artsyz"], [713171, "Artemovskiy Rayon"], [713174, "Artemivsk"], [713175, "Artemovsk"], [713178, "Artemovka"], [713191, "Artek"], [713203, "Armyansk"], [713204, "Armutluk"], [713222, "Arbuzynka"], [713245, "Apostolove"], [713259, "Antratsit"], [713316, "Antoniny"], [713389, "Andrushivka"], [713500, "Anan’yiv"], [713504, "Amvrosiyivka"], [713505, "Amurs’ke"], [713513, "Alushta"], [713514, "Alupka"], [713520, "Alsu"], [713544, "Alekseyevo-Druzhkovka"], [713634, "Aleksandrovka"], [713676, "Aleksandrovka"], [713683, "Oleksandrivka"], [713698, "Aleksandro-Grigor’yevka"], [713709, "Aleksandrinka"], [713716, "Alchevsk"], [713724, "Alabash Konrat"], [713743, "Yakymivka"], [713746, "Akikat"], [713749, "Okhtyrka"], [713760, "Ageyevka"], [713772, "Aeroflots’kyy"], [713784, "Adzhamka"], [793657, "Malynivka"], [796868, "Mykhaylivka"], [796898, "Novyy Koyash"], [796931, "Dzhardzhava"], [806450, "Chernyaki"], [806512, "Imeni Frunze"], [806930, "Savkino"], [808829, "Kostyanka"], [808832, "Otdokhnina"], [808841, "Novo Ivanovka"], [808864, "Vasil’yevo-Grigor’yevskiy"], [808926, "Privol’ye"], [809274, "Kabachki"], [809657, "Kooperatorka"], [810039, "Kuznetsovka"], [810074, "Krasnyy Pakhar’"], [810784, "Slavyanoserbsk"], [810965, "Butovka"], [812803, "Nadtochiv"], [812806, "Sinolitsovka"], [812877, "Krasnyy Oktyabr’"], [812881, "Kislovskiy"], [812917, "Losevo"], [812926, "Chunikhin"], [812935, "Molchany"], [815919, "Sorokin"], [826042, "Yehorove"], [826049, "Tsementna Slobidka"],   [829745, "Kopashnovo"], [829788, "Narkevychi"], [829795, "Kirove"], [830068, "Hromy"], [832394, "Orikhove"], [860012, "Krasni Okny"], [864871, "Kuchurhan"], [864933, "Smyga"], [865086, "Tayirove"], [865087, "Teplodar"], [865729, "Tavriys’k"], [6559559, "Komsomolsk"], [6722149, "Sokol’nyky"], [6722153, "Ivanivka"], [6723018, "Shatylivka"], [6723020, "Dal’nya Zhuravlivka"], [6725459, "Il’icha"], [6725648, "Shevchenka"], [6930327, "Slavutich"], [6931023, "Orzhiv"], [6957702, "Krasnogorovka"], [6974516, "Pryyatne Svidannya"], [6974770, "Molochne"], [6976172, "Komsomols’ke"], [6980613, "Malen’ke"], [6981123, "Shyroke"], [6981130, "Novoandriyivka"], [6982974, "Marta"], [6983015, "Tretiy Samostriy"], [6986274, "Lazarivka"], [6986279, "Druzhne"], [6987036, "Rozovyy"], [6988139, "Lavanda"], [7018274, "Krasnyy Partyzan"], [7018275, "Poltavka"], [7018912, "Yantarne"], [7019513, "Blyzhnye"], [7019825, "Oktyabrs’kyy"], [7019906, "Dibrivka"], [7019908, "Vidradne"], [7020273, "Tymofiyivka"], [7020274, "Kostyantynivka"], [7021003, "Izumrudne"], [7021056, "Pavlivka"], [7021061, "Vitvyste"], [7021078, "Male Sadove"], [7021112, "Nyzhnya Holubynka"], [7021138, "Aromat"], [7031339, "Chonhar"], [7032306, "Shchorsivka"], [7039160, "Shkilne"], [7040002, "Topoli"], [7040014, "Kocherhine"], [7040016, "Samokhvalove"], [7040018, "Sevastyanivka"], [7040021, "Aromatne"], [7040022, "Malovydne"], [7040139, "Zaliznychne"], [7040140, "Pyrohivka"], [7040142, "Semarenka"], [7046438, "Zaliznychne"], [7046674, "Novyy Trud"], [7046678, "Sal’kove"], [7046679, "Krasne Znam”ya"], [7046808, "Moskalenka"], [7046809, "Rivne"], [7046810, "Kommunarskoye"], [7048362, "Novoyefremivka"], [7048363, "Druzhba"], [7280677, "Denyshi"], [7303923, "Stepove"], [7522123, "Scholkine"], [7525990, "Yuzhnoukrainsk"], [8037857, "Krasnyy Prohres"], [8129116, "Hora"], [8224454,"Novyi Svit"], [695441, "Roskoshnoye"], [695459, "Ropcha"], [695463, "Romodan"], [695464, "Romny"], [695515, "Rokosovo"], [695516, "Rokytne"], [709782, "Dolynska"], [709808, "Dovhe"], [712773, "Bashtanivka"], [712775, "Bashtanka"], [712787, "Baryshivka"], [712794, "Barvinkove"], [712796, "Bartenivka"], [712808, "Barmashovo"], [708953, "Gaspra"], [709034, "Galich"], [709054, "Hadyach"], [709071, "Frunzivka"], [709074, "Frunzevka"], [709075, "Partenit"], [705514, "Kocherovo"], [705524, "Kobyzhcha"], [705540, "Kobleve"], [705544, "Kobelyaky"], [705560, "Knyazhichi"], [701922, "Mamut"], [701932, "Malyy Tokmak"], [701947, "Malyy Mayak"], [701965, "Malyy Fontan"], [702061, "Malorichenske"], [709082, "Frunze"], [709083, "Fruktove"], [709112, "Foros"], [705598, "Klyuchevaya"], [712969, "Bakhchysaray"],[712839, "Baranovka"], [709900, "Dobropolye"], [709929, "Dnipropetrovska Oblast’"], [709930, "Dnipropetrovsk"], [712808, "Barmashovo"], [712839, "Baranovka"]]}